module gitlab.com/watonist/letsgo

go 1.20

require (
	github.com/antonfisher/nested-logrus-formatter v1.3.1
	github.com/joonix/log v0.0.0-20230221083239-7988383bab32
	github.com/kardianos/osext v0.0.0-20190222173326-2bc1f35cddc0
	github.com/nolleh/caption_json_formatter v0.2.2
	github.com/pkg/errors v0.9.1
	github.com/sirupsen/logrus v1.9.3
	github.com/spf13/viper v1.17.0
	gopkg.in/natefinch/lumberjack.v2 v2.2.1
)

require (
	github.com/fsnotify/fsnotify v1.6.0 // indirect
	github.com/golang/protobuf v1.5.3 // indirect
	github.com/hashicorp/hcl v1.0.0 // indirect
	github.com/magiconair/properties v1.8.7 // indirect
	github.com/mitchellh/mapstructure v1.5.0 // indirect
	github.com/pelletier/go-toml/v2 v2.1.0 // indirect
	github.com/sagikazarmark/locafero v0.3.0 // indirect
	github.com/sagikazarmark/slog-shim v0.1.0 // indirect
	github.com/sourcegraph/conc v0.3.0 // indirect
	github.com/spf13/afero v1.10.0 // indirect
	github.com/spf13/cast v1.5.1 // indirect
	github.com/spf13/pflag v1.0.5 // indirect
	github.com/subosito/gotenv v1.6.0 // indirect
	go.uber.org/atomic v1.9.0 // indirect
	go.uber.org/multierr v1.9.0 // indirect
	golang.org/x/exp v0.0.0-20230905200255-921286631fa9 // indirect
	golang.org/x/sys v0.12.0 // indirect
	golang.org/x/text v0.13.0 // indirect
	google.golang.org/genproto v0.0.0-20230913181813-007df8e322eb // indirect
	google.golang.org/protobuf v1.31.0 // indirect
	gopkg.in/ini.v1 v1.67.0 // indirect
	gopkg.in/yaml.v3 v3.0.1 // indirect
)
